<?xml version="1.0" encoding="UTF-8"?>
<svg width="26px" height="18px" viewBox="0 0 26 18" version="1.1" xmlns="http://www.w3.org/2000/svg" xmlns:xlink="http://www.w3.org/1999/xlink">
    <!-- Generator: Sketch 63.1 (92452) - https://sketch.com -->
    <title>icon3</title>
    <desc>Created with Sketch.</desc>
    <g id="Page-1" stroke="none" stroke-width="1" fill="none" fill-rule="evenodd">
        <g id="Main-Artboard" transform="translate(-910.000000, -256.000000)" fill="#000000" fill-rule="nonzero">
            <g id="wikipedia" transform="translate(910.000000, 255.000000)">
                <path d="M9.39733263,18.1495549 C10.6361734,15.6160698 12.0759073,12.9486559 13.3817124,10.3928493 L16.674127,18.1495549 L17.2210027,18.1495549 L17.2210027,18.1495549 C19.3080587,13.3839243 22.4553839,6.06248696 23.4598494,3.74105562 C23.8951178,2.75891159 24.5759222,2.1562323 25.7031556,2.12275012 L25.7143164,1.63167811 L25.7031556,1.60935665 L20.5692209,1.56471374 L20.5692209,2.12275012 L20.5692209,2.12275012 C21.0044893,2.13391085 22.1205621,2.33480395 22.4665446,3.26114434 L17.5446638,14.6116043 C17.3102885,14.0535679 15.0223393,8.96427613 14.7656426,8.31695393 L17.1428776,3.38391234 C17.6339496,2.62498286 18.5714507,2.14507158 19.4754696,2.11158939 L19.4754696,1.56471374 C18.9955584,1.57587447 16.3169837,1.57587447 14.5312673,1.5870352 C14.5201066,1.72096393 14.5312673,1.98882139 14.5201066,2.13391085 C15.9151975,2.16739303 16.428591,2.49105413 16.0714477,3.31694797 C15.5357328,4.57811019 14.3638564,6.93302371 14.1406419,7.36829209 C13.437516,5.89507605 12.9687655,4.76784256 12.209836,3.16069779 C11.8638534,2.42408977 12.6116222,2.13391085 13.3928731,2.11158939 L13.3928731,1.5870352 L7.66741985,1.57587447 L7.66741985,2.13391085 L7.66741985,2.13391085 C8.45983151,2.14507158 9.52010063,2.21203594 9.9107261,2.92632251 C10.4799232,3.9754309 12.2768003,8.21650739 12.8348367,9.3549016 C12.1317109,10.7053496 10.4129588,13.8973177 9.81027955,15.0915156 C8.92858207,13.149549 5.64732816,5.49328985 4.76563068,3.49551962 C4.38616594,2.65846505 5.73661398,2.16739303 6.50670419,2.12275012 L6.50670419,1.56471374 L0,1.56471374 C0,1.73212466 0.0111607276,2.01114285 0.0111607276,2.13391085 C1.06026912,2.12275012 2.5892888,3.86382363 3.04687863,4.93525347 C4.93304159,9.3549016 6.90849038,13.7299068 8.79465334,18.1383942 C8.79465334,18.1495549 9.3861719,18.1607157 9.39733263,18.1495549 Z" id="icon3"></path>
            </g>
        </g>
    </g>
</svg>